LeagueDataProject
…
Wins of Blue Side vs Red

Lets compare to see if maybe one side has more landscape advantages. Now we can that blue side has more wins but why?

##      n
## 1 4146

##      n
## 1 3474

What team has the best record?

We can see here from count that the Blue side has won more than the red side but lets figure out what teams perform the best on either side

## # A tibble: 216 x 3
## # Groups:   blueTeamTag, bResult [216]
##    blueTeamTag bResult     n
##    <chr>         <int> <int>
##  1 SKT               1   146
##  2 TSM               1   104
##  3 kt                1   101
##  4 SSG               1    99
##  5 FNC               1    97
##  6 H2K               1    95
##  7 CLG               1    92
##  8 C9                1    90
##  9 FW                1    88
## 10 ROX               1    80
## # ... with 206 more rows

Get both sides blue and red to see what team has the best record.

## # A tibble: 205 x 3
## # Groups:   redTeamTag, rResult [205]
##    redTeamTag rResult     n
##    <chr>        <int> <int>
##  1 SKT              1   141
##  2 TSM              1   103
##  3 C9               1    88
##  4 kt               1    85
##  5 SSG              1    82
##  6 FW               1    77
##  7 CLG              1    73
##  8 G2               1    70
##  9 ahq              1    68
## 10 UOL              1    68
## # ... with 195 more rows

The team SKT is a very successful team from Korea and are definitely considered one of the best teams in the world due to their repeated appearances in the World Cup Championships and 3 titles under their belt, which is the most out of any team.

Team With the worst record?

## # A tibble: 238 x 3
## # Groups:   redTeamTag, rResult [238]
##    redTeamTag rResult     n
##    <chr>        <int> <int>
##  1 JAG              0    86
##  2 TL               0    80
##  3 NV               0    79
##  4 SSG              0    73
##  5 ROX              0    71
##  6 UOL              0    71
##  7 TSM              0    69
##  8 CLG              0    68
##  9 SKT              0    67
## 10 FNC              0    65
## # ... with 228 more rows

## # A tibble: 233 x 3
## # Groups:   blueTeamTag, bResult [233]
##    blueTeamTag bResult     n
##    <chr>         <int> <int>
##  1 SSG               0    68
##  2 JAG               0    64
##  3 C9                0    63
##  4 CLG               0    62
##  5 kt                0    62
##  6 GIA               0    59
##  7 NV                0    58
##  8 ROX               0    57
##  9 TL                0    57
## 10 UOL               0    57
## # ... with 223 more rows
…
